{
    "request_price": {
        "column": {
            "request_id": true,
            "user_name": true,
            "email": true,
            "comment": true,
            "status": true,
            "product_sku": true,
            "created_at": true
        },
        "index": {
            "REQUEST_PRICE_REQUEST_ID": true
        },
        "constraint": {
            "PRIMARY": true
        }
    }
}